X, Y, Z, EPOCH
-0.650879, -0.518799, 1.405762, 1459864547160
-0.658203, -0.505615, 1.614746, 1459864547180
-0.888672, -0.558105, 1.819580, 1459864547201
-1.140381, -0.633789, 1.925781, 1459864547221
-1.330811, -0.594727, 1.863037, 1459864547240
-1.437988, -0.471191, 1.654053, 1459864547261
-1.477539, -0.327881, 1.360352, 1459864547281
-1.583252, -0.268555, 1.122803, 1459864547300
-1.685303, -0.348145, 0.998779, 1459864547321
-1.605957, -0.344971, 0.821777, 1459864547341
-1.450439, -0.275879, 0.632813, 1459864547361
-1.305664, -0.240967, 0.487061, 1459864547381
-1.201416, -0.244385, 0.368408, 1459864547402
-1.093994, -0.234131, 0.242188, 1459864547421
-0.979004, -0.221924, 0.165283, 1459864547441
-0.808594, -0.115967, 0.014893, 1459864547462
-0.704834, -0.034424, -0.065430, 1459864547481
-0.614502, -0.044678, -0.092041, 1459864547501
-0.444580, -0.069336, -0.117920, 1459864547522
-0.343994, -0.147705, -0.062256, 1459864547541
-0.239014, -0.160156, -0.056152, 1459864547561
-0.081787, -0.086182, -0.102539, 1459864547582
0.020752, -0.101318, -0.047119, 1459864547601
0.123291, -0.168457, 0.043457, 1459864547621
0.236328, -0.158691, 0.044678, 1459864547642
0.230957, -0.190918, 0.124268, 1459864547661
0.271973, -0.312256, 0.320557, 1459864547681
0.539307, -0.375732, 0.453613, 1459864547702
0.649414, -0.448242, 0.582031, 1459864547721
0.705078, -0.563477, 0.707764, 1459864547741
0.613770, -0.751709, 0.889648, 1459864547762
0.596924, -0.992920, 1.141357, 1459864547781
0.628418, -1.032959, 1.299561, 1459864547801
0.415771, -0.803467, 1.296875, 1459864547822
0.035889, -0.884521, 1.484863, 1459864547841
-0.406982, -1.211426, 1.819824, 1459864547861
-0.709229, -1.250000, 1.934082, 1459864547882
-0.814697, -0.853027, 1.679932, 1459864547901
-0.897949, -0.531250, 1.453125, 1459864547922
-1.206055, -0.556152, 1.440430, 1459864547942
-1.502686, -0.607178, 1.470703, 1459864547961
-1.394043, -0.437988, 1.292725, 1459864547982
-1.199463, -0.197021, 1.001221, 1459864548002
-1.002686, -0.164063, 0.877930, 1459864548021
-0.818115, -0.193115, 0.792725, 1459864548042
-0.677979, -0.161865, 0.644043, 1459864548062
-0.617920, -0.193848, 0.567871, 1459864548081
-0.543945, -0.309570, 0.580566, 1459864548102
-0.502441, -0.459717, 0.693359, 1459864548122
-0.525146, -0.557861, 0.725586, 1459864548141
-0.287354, -0.584961, 0.755127, 1459864548162
-0.480225, -0.590088, 0.778320, 1459864548182
-0.623047, -0.528564, 0.731201, 1459864548201
-0.561523, -0.563721, 0.729004, 1459864548222
-0.823730, -0.449463, 0.631592, 1459864548242
