X, Y, Z, EPOCH
-0.645996, 0.174072, 1.009521, 1459864483546
-0.659180, 0.175537, 1.013672, 1459864483565
-0.752441, 0.155762, 1.013916, 1459864483586
-0.860107, 0.097900, 1.028320, 1459864483606
-0.850098, 0.169678, 0.934570, 1459864483625
-0.758789, 0.161865, 0.947266, 1459864483646
-0.601807, -0.000244, 1.054443, 1459864483666
-0.545410, -0.149902, 1.131592, 1459864483685
-0.597656, -0.214355, 1.157227, 1459864483706
-0.527588, -0.173828, 1.093018, 1459864483726
-0.204590, -0.215576, 1.088135, 1459864483745
0.055664, -0.281738, 1.094971, 1459864483766
0.135742, -0.300537, 1.056641, 1459864483786
0.187256, -0.332275, 1.040283, 1459864483805
0.156982, -0.280518, 1.001953, 1459864483826
0.261475, -0.341309, 1.060303, 1459864483846
0.334229, -0.335938, 1.060303, 1459864483865
0.266113, -0.216797, 0.979980, 1459864483886
0.182373, -0.134033, 0.941650, 1459864483906
0.085205, -0.092529, 0.937500, 1459864483925
0.031982, -0.068604, 0.942139, 1459864483946
-0.041748, -0.036133, 0.967529, 1459864483966
-0.148193, -0.154541, 1.111572, 1459864483986
-0.238525, -0.170898, 1.131104, 1459864484006
-0.229248, -0.097900, 1.072021, 1459864484027
-0.283447, -0.058350, 1.006592, 1459864484046
-0.304932, -0.046631, 0.925537, 1459864484066
-0.187744, -0.004150, 0.814697, 1459864484087
-0.286621, -0.093750, 0.911621, 1459864484106
-0.269775, -0.277100, 1.068848, 1459864484126
-0.192139, -0.234863, 1.039063, 1459864484147
-0.127197, -0.177002, 1.019043, 1459864484166
