X, Y, Z, EPOCH
5.746952, 57.408539, 19.451220, 1459864490601
6.661585, 56.631100, 18.902439, 1459864490620
13.871951, 45.335365, 17.835367, 1459864490640
20.198172, 33.643295, 24.344513, 1459864490661
14.176829, 26.250000, 25.838415, 1459864490680
6.021342, 27.057928, 48.048782, 1459864490700
-1.265244, 37.393295, 83.185974, 1459864490721
-4.161585, 44.146343, 104.801834, 1459864490740
-1.844512, 42.225613, 118.155487, 1459864490760
-14.496951, 35.076221, 125.045738, 1459864490781
-35.243904, 17.530489, 130.000000, 1459864490800
-49.283539, 8.871951, 131.219513, 1459864490820
-39.542683, 17.149391, 143.018295, 1459864490841
-18.750000, 22.606709, 155.106705, 1459864490860
-21.768293, 20.304878, 151.219513, 1459864490881
-35.762196, 19.664635, 143.292679, 1459864490901
-36.402439, 24.588415, 127.606712, 1459864490920
-29.740854, 19.771341, 115.030487, 1459864490941
-17.545732, 12.286586, 105.853661, 1459864490961
-9.085366, 11.219512, 93.170731, 1459864490980
-11.448171, 11.097561, 76.798782, 1459864491001
-19.146341, 16.310976, 61.875000, 1459864491021
-28.353659, 23.963415, 50.304878, 1459864491040
-33.216465, 26.204269, 38.003048, 1459864491061
-25.914635, 22.759148, 37.484756, 1459864491081
-12.865854, 10.807927, 40.274391, 1459864491100
-5.807927, -3.323171, 28.262196, 1459864491121
-12.774390, -46.951221, 6.417683, 1459864491141
-14.176829, -59.405491, -6.920732, 1459864491160
10.411586, 12.301829, 9.039635, 1459864491181
