X, Y, Z, EPOCH
97.317078, -70.579269, 36.387196, 1459864494689
99.070122, -70.533539, 35.289635, 1459864494708
102.332321, -69.039635, 30.777439, 1459864494729
101.128052, -64.878052, 23.856709, 1459864494749
102.134148, -64.939026, 18.871952, 1459864494768
96.432930, -50.518295, 17.713415, 1459864494789
89.862808, -32.652439, 20.228659, 1459864494809
97.926834, -46.204269, 24.496952, 1459864494828
114.359756, -85.746956, 22.957317, 1459864494849
141.158539, -126.341469, 24.710367, 1459864494869
143.978668, -143.018295, 22.012196, 1459864494888
116.021347, -118.277443, 11.996951, 1459864494909
80.868904, -57.210365, 4.054878, 1459864494929
90.564026, -40.579269, 8.018292, 1459864494948
112.301834, -45.655487, 18.521341, 1459864494969
106.692078, -46.371952, 15.457317, 1459864494989
83.689026, -26.814026, 11.036586, 1459864495008
66.493904, -15.030488, 11.112805, 1459864495029
58.155491, -23.902439, 9.695122, 1459864495049
46.265244, -11.737805, 6.814024, 1459864495069
50.884148, -30.579269, 5.884147, 1459864495089
52.057926, -39.344513, 7.195122, 1459864495110
35.884148, -19.496952, 6.646342, 1459864495129
13.262196, 0.762195, 3.475610, 1459864495149
-6.524390, 20.259148, 0.807927, 1459864495170
-20.045732, 37.042683, 3.231707, 1459864495189
-26.890245, 45.121952, 5.335366, 1459864495211
-26.341463, 23.704269, 0.381098, 1459864495230
-21.646341, 6.966464, -17.164635, 1459864495249
-22.347561, -16.448172, -30.838415, 1459864495271
-25.396341, -4.588415, -24.542683, 1459864495290
-14.527439, 22.576220, 14.375000, 1459864495309
-12.743903, 35.121952, 15.076220, 1459864495337
