X, Y, Z, EPOCH
13.658537, 10.625000, -71.768295, 1459864479213
14.146341, 11.189025, -73.628052, 1459864479232
13.582317, 9.176829, -83.887199, 1459864479253
14.557927, 0.579268, -93.932930, 1459864479273
18.932928, -8.689025, -100.762199, 1459864479292
19.618902, -6.798780, -106.326225, 1459864479313
14.146341, -3.597561, -115.182930, 1459864479333
11.189025, -13.963415, -125.899391, 1459864479352
6.875000, -10.670732, -129.344513, 1459864479373
3.399390, -15.472561, -133.597565, 1459864479393
2.576220, -21.935976, -143.780487, 1459864479412
3.689024, -15.640244, -145.030487, 1459864479433
10.442074, -18.445122, -143.536591, 1459864479453
13.475610, -17.804878, -139.466461, 1459864479472
10.000000, -19.314024, -144.512192, 1459864479493
3.902439, -1.219512, -144.146347, 1459864479513
3.277439, 6.158537, -130.975616, 1459864479532
0.884146, -5.975610, -115.594513, 1459864479553
9.131098, -12.789635, -98.887199, 1459864479573
14.237805, -11.966464, -80.914635, 1459864479592
8.719512, -16.295732, -63.689026, 1459864479613
1.067073, -14.512196, -49.618904, 1459864479633
-1.661585, -13.414635, -38.612804, 1459864479653
3.033537, -7.606708, -24.679878, 1459864479673
6.798780, 0.182927, -6.051829, 1459864479694
4.390244, -6.798780, 2.926829, 1459864479713
3.185976, 1.387195, 3.689024, 1459864479733
12.103659, 42.347561, 6.631098, 1459864479754
32.820122, 104.375000, -6.478659, 1459864479773
37.423782, 63.262196, -13.902439, 1459864479793
40.625000, 57.500000, 4.375000, 1459864479814
3.338415, 37.408539, 37.667683, 1459864479833
-16.814024, 35.609756, 43.414635, 1459864479874
