X, Y, Z, EPOCH
70.990852, -28.826220, 20.868902, 1459864502963
67.957321, -23.978659, 20.152439, 1459864502983
65.076218, -23.018293, 19.786587, 1459864503004
108.978661, -94.344513, 28.277439, 1459864503023
142.881104, -119.588417, 37.682926, 1459864503043
138.064026, -101.585365, 39.588417, 1459864503064
118.216469, -76.326218, 38.567074, 1459864503083
81.219513, -37.088417, 30.625000, 1459864503103
78.597565, -51.570122, 22.515244, 1459864503124
117.408539, -90.533539, 27.560976, 1459864503143
131.951218, -91.814026, 33.658539, 1459864503163
112.073174, -75.548782, 31.905489, 1459864503184
79.222565, -56.036587, 20.045732, 1459864503203
39.634148, -20.350611, 6.067073, 1459864503223
38.231709, -17.576220, 9.085366, 1459864503244
73.689026, -43.109756, 28.765245, 1459864503263
72.682930, -51.173782, 25.442074, 1459864503283
46.097561, -52.057926, 12.621951, 1459864503304
26.554878, -29.542685, 14.634147, 1459864503323
17.606709, 4.207317, 17.591463, 1459864503343
24.512196, 26.310976, 15.929878, 1459864503364
27.484756, 27.378050, -12.073171, 1459864503383
5.807927, -0.685976, -32.012196, 1459864503403
-0.640244, 10.807927, -8.003049, 1459864503424
-13.689025, 39.740856, 1.722561, 1459864503443
-37.195122, 56.829269, -7.591464, 1459864503464
-49.771343, 52.713417, 5.335366, 1459864503484
-46.753052, 24.329269, 23.064026, 1459864503503
-28.445122, 22.393293, 28.673780, 1459864503524
-21.722561, 56.158539, 20.106709, 1459864503544
