X, Y, Z, EPOCH
43.460365, -34.542683, 32.652439, 1459864498407
44.176830, -33.414635, 33.414635, 1459864498427
46.676830, -24.954269, 35.929878, 1459864498448
50.472561, -25.564026, 36.615856, 1459864498467
70.731712, -48.307926, 40.914635, 1459864498487
94.375000, -67.972565, 51.585365, 1459864498508
105.914635, -82.378052, 58.262196, 1459864498527
120.777443, -92.225609, 62.743904, 1459864498548
121.615860, -84.253052, 61.539635, 1459864498568
110.365860, -68.338417, 55.746952, 1459864498587
111.554878, -77.301834, 52.484756, 1459864498608
108.231712, -90.655487, 49.496952, 1459864498628
100.609756, -102.347565, 43.673782, 1459864498647
97.393295, -101.463417, 41.295734, 1459864498668
56.814026, -20.000000, 36.234756, 1459864498707
80.243904, -48.704269, 50.792683, 1459864498728
83.368904, -96.539635, 35.762196, 1459864498767
88.033539, -117.057930, 28.170732, 1459864498788
72.850609, -55.990856, 38.033539, 1459864498808
49.451221, -5.746952, 43.109756, 1459864498827
46.158539, -27.652439, 40.792683, 1459864498848
38.338417, -50.091465, 23.689026, 1459864498868
23.658537, -45.640244, 11.158537, 1459864498889
6.432927, -18.399391, 15.030488, 1459864498908
-8.140244, 0.899390, 14.664635, 1459864498928
-20.091463, 8.185976, 9.954268, 1459864498947
-26.585367, 10.518293, 6.600610, 1459864498968
-30.182928, 17.286585, 4.253049, 1459864498988
-25.640245, 21.600611, 1.463415, 1459864499007
-23.826220, 23.978659, 0.685976, 1459864499028
-29.756098, 13.902439, -6.204268, 1459864499049
-27.591465, -24.557928, -22.286587, 1459864499068
-15.457317, -52.042683, -24.253050, 1459864499088
7.896342, -21.204269, 6.448171, 1459864499109
