X, Y, Z, EPOCH
-0.754639, -0.218018, 0.913086, 1459864049593
-0.660889, -0.181396, 0.896973, 1459864049632
-0.697021, -0.181885, 0.836182, 1459864049672
-0.722412, -0.367432, 0.923584, 1459864049713
-0.610596, -0.402100, 0.929443, 1459864049752
-0.495850, -0.412354, 0.915771, 1459864049792
0.027100, -0.465088, 1.008789, 1459864049872
-0.064453, -0.485107, 0.954346, 1459864049912
0.134033, -0.343506, 1.029541, 1459864049993
-0.190186, -0.245117, 0.993896, 1459864050032
-0.553955, -0.237793, 0.892822, 1459864050113
-0.640625, -0.200928, 0.803955, 1459864050152
-0.411865, -0.286621, 0.812988, 1459864050233
-0.663086, -0.247314, 0.670898, 1459864050272
