X, Y, Z, EPOCH
-0.120361, -0.036133, 0.506104, 1459864078939
-0.340820, -0.157715, 0.569092, 1459864078979
-0.238281, -0.227051, 0.565186, 1459864079020
-0.343018, -0.210938, 0.602783, 1459864079059
-0.463623, -0.366943, 0.830078, 1459864079099
-0.539795, -0.357910, 0.947754, 1459864079140
-0.715820, -0.265137, 1.156006, 1459864079180
-0.468994, -0.301270, 1.560791, 1459864079219
-0.231934, -0.609863, 1.995605, 1459864079260
-0.694824, -0.464844, 1.744873, 1459864079300
-0.764404, -0.553955, 1.539795, 1459864079339
-0.542969, -0.472656, 1.178223, 1459864079380
-0.592285, -0.524170, 0.887939, 1459864079420
-0.432617, -0.458252, 0.633301, 1459864079459
-0.740723, -0.444580, 0.445557, 1459864079500
-0.565430, -0.446289, 0.594971, 1459864079540
-0.519775, -0.381836, 0.687012, 1459864079581
