X, Y, Z, EPOCH
0.239990, -0.347412, 1.093018, 1459864019421
0.145508, -0.337646, 1.075195, 1459864019461
0.012695, -0.318115, 1.035156, 1459864019502
-0.145264, -0.246826, 0.985840, 1459864019541
-0.283691, -0.251953, 0.996582, 1459864019581
-0.468750, -0.214600, 1.023682, 1459864019622
-0.561279, -0.158203, 1.037842, 1459864019662
-0.557129, -0.041016, 0.984619, 1459864019701
-0.449219, -0.024414, 0.990967, 1459864019742
-0.388916, -0.019043, 1.006348, 1459864019782
-0.268555, -0.000244, 1.002686, 1459864019821
-0.222656, 0.077881, 0.926758, 1459864019862
-0.279053, 0.037354, 0.960938, 1459864019902
-0.265137, -0.035156, 1.030029, 1459864019941
-0.202148, -0.040527, 1.028564, 1459864019982
-0.156738, -0.077881, 1.025879, 1459864020022
-0.341553, -0.121582, 1.024902, 1459864020063
-0.493652, -0.271484, 1.114014, 1459864020102
