X, Y, Z, EPOCH
-0.114502, 0.006104, 0.582520, 1459864071625
-0.060791, -0.076660, 0.562744, 1459864071665
-0.167236, -0.025391, 0.434814, 1459864071704
-0.441406, -0.165039, 0.479004, 1459864071746
-0.442139, -0.276367, 0.598877, 1459864071785
-0.496582, -0.428467, 0.755371, 1459864071825
-0.527832, -0.549316, 0.987793, 1459864071866
-0.549561, -0.628906, 1.253906, 1459864071905
-0.649170, -0.686279, 1.486084, 1459864071945
-0.541260, -0.550293, 1.468506, 1459864071986
-0.506592, -0.579346, 1.416260, 1459864072025
-0.535400, -0.600586, 1.319092, 1459864072065
-0.541260, -0.505127, 1.114990, 1459864072106
-0.678223, -0.611572, 1.064209, 1459864072145
-0.736084, -0.588379, 1.037598, 1459864072185
-0.572510, -0.584717, 0.871338, 1459864072226
-0.916504, -0.610840, 0.746094, 1459864072266
