X, Y, Z, EPOCH
-11.509147, 22.804878, 32.774391, 1459864054961
-6.798780, 12.347561, 32.530487, 1459864055002
-5.167683, -13.780488, 47.362804, 1459864055042
-25.396341, -17.576220, 81.875000, 1459864055081
-31.402439, -23.902439, 100.503052, 1459864055122
-26.524391, -20.213415, 94.344513, 1459864055162
-29.207317, -13.826220, 94.786591, 1459864055202
-17.530489, -4.725610, 96.920731, 1459864055243
-17.179878, -14.298780, 81.890244, 1459864055282
-18.048780, -23.826220, 60.945122, 1459864055322
-19.359756, 2.850610, 31.021341, 1459864055363
-9.314025, 27.149391, 6.067073, 1459864055402
-18.003050, 28.353659, -3.628049, 1459864055443
7.545732, -8.948171, 18.902439, 1459864055483
17.134148, -23.902439, -1.387195, 1459864055522
