X, Y, Z, EPOCH
3.856707, -23.429878, -2.850610, 1459864025648
4.314024, -27.347561, -4.283537, 1459864025688
0.259146, -25.167683, -13.948171, 1459864025729
0.274390, -11.295732, -31.920732, 1459864025768
3.704268, -2.804878, -51.935978, 1459864025808
14.054878, -20.030489, -72.652443, 1459864025849
16.493902, -18.307928, -87.759148, 1459864025889
14.435976, -29.634148, -97.073174, 1459864025928
4.435976, -19.969513, -111.935982, 1459864025969
10.960366, -10.960366, -131.661591, 1459864026009
17.256098, 1.783537, -137.454269, 1459864026048
21.905489, 11.067074, -122.439026, 1459864026089
16.478659, 10.289635, -96.356712, 1459864026129
12.012196, -1.173781, -66.280487, 1459864026168
8.521341, -6.585366, -44.862804, 1459864026209
6.173780, 9.649390, -33.246952, 1459864026249
2.301829, 22.454269, -22.972561, 1459864026288
6.143293, 17.057928, -13.125000, 1459864026329
8.917684, 20.609756, 6.295732, 1459864026369
-2.118902, 15.442074, 16.189024, 1459864026409
