X, Y, Z, EPOCH
-8.963415, -45.762196, 75.594513, 1459864086637
-6.600610, -45.182926, 77.118904, 1459864086678
7.454268, -41.783539, 84.710365, 1459864086718
30.518293, -48.445122, 86.920731, 1459864086757
54.314026, -66.570122, 79.329269, 1459864086798
76.158539, -58.704269, 61.371952, 1459864086838
97.240852, -44.451221, 37.911587, 1459864086877
100.929878, -48.323174, 17.713415, 1459864086918
98.719513, -45.533539, -0.289634, 1459864086958
100.137199, -51.798782, -18.887196, 1459864086997
88.125000, -38.810978, -39.435978, 1459864087038
77.484756, -19.588415, -54.496952, 1459864087078
67.774391, -18.018293, -65.320122, 1459864087118
53.582317, -7.881098, -73.460365, 1459864087159
37.423782, -5.060976, -79.451218, 1459864087198
23.109756, -1.509146, -86.234756, 1459864087238
11.143293, 11.966464, -86.829269, 1459864087279
-8.628049, 27.439026, -84.939026, 1459864087318
-25.670732, 25.868902, -80.137199, 1459864087358
-43.064026, 30.076220, -71.859756, 1459864087399
-62.225613, 43.506100, -58.277439, 1459864087438
-75.015244, 34.512196, -39.344513, 1459864087478
-88.445122, 32.286587, -19.939024, 1459864087519
-91.173782, 22.728659, -2.332317, 1459864087559
-97.835365, 9.146341, 17.408537, 1459864087598
-93.323174, 17.454269, 43.018295, 1459864087639
-75.792686, 23.231709, 62.484756, 1459864087679
-49.984756, 0.670732, 67.301834, 1459864087718
-27.057928, -2.637195, 61.737804, 1459864087759
-14.588415, 20.640244, 55.411587, 1459864087799
-2.530488, 13.521341, 47.972561, 1459864087838
-2.179878, 3.277439, 36.326221, 1459864087879
-7.378049, 3.612805, 22.865854, 1459864087919
-9.207317, 6.996952, 13.932927, 1459864087958
7.804878, 11.006098, 25.030489, 1459864087999
34.222561, -8.246951, 16.737804, 1459864088039
