X, Y, Z, EPOCH
6.493903, -8.094512, -15.548780, 1459843757151
7.728659, -9.405488, -16.509148, 1459843757161
9.115854, -12.362805, -20.472561, 1459843757171
8.216464, -8.384147, -22.362806, 1459843757182
6.493903, -0.655488, -22.911587, 1459843757191
1.371951, 5.060976, -22.530489, 1459843757201
-3.429878, 8.932927, -21.067074, 1459843757211
-7.835366, 15.884147, -21.585367, 1459843757221
-12.911586, 19.283537, -24.314026, 1459843757232
-11.768293, 12.835366, -28.018293, 1459843757242
-7.454268, 9.862805, -30.060976, 1459843757251
-2.759146, 8.582317, -32.530487, 1459843757261
1.478659, 10.045732, -33.917683, 1459843757271
4.817073, 14.283537, -33.765244, 1459843757281
5.182927, 13.810976, -34.695122, 1459843757292
4.451220, 10.533537, -36.204269, 1459843757302
1.448171, 9.771341, -38.307926, 1459843757311
-4.237805, 9.634147, -41.387196, 1459843757321
-7.637195, 11.036586, -44.496952, 1459843757331
-11.173780, 13.810976, -46.234756, 1459843757341
-11.128049, 9.375000, -50.289635, 1459843757352
-10.350610, 11.875000, -49.923782, 1459843757362
-9.161586, 17.286585, -48.033539, 1459843757371
-6.432927, 21.280489, -50.990856, 1459843757381
-2.957317, 26.371952, -53.628052, 1459843757391
0.670732, 22.698172, -56.615856, 1459843757401
1.631098, 14.283537, -58.521343, 1459843757412
0.350610, 13.307927, -59.542683, 1459843757422
-2.621951, 14.466464, -61.189026, 1459843757431
-6.798780, 14.161586, -60.350613, 1459843757441
-6.798780, 9.847561, -59.786587, 1459843757451
-7.621952, 5.518293, -60.884148, 1459843757462
-9.405488, -1.951220, -65.746956, 1459843757472
-10.137196, -1.250000, -69.344513, 1459843757482
-10.060976, 3.963415, -68.963417, 1459843757491
-5.289634, 4.740854, -69.283539, 1459843757501
-1.844512, 7.439024, -68.262199, 1459843757511
0.868902, 5.320122, -67.560974, 1459843757522
5.060976, -2.134146, -67.164635, 1459843757532
4.710366, -4.024390, -66.280487, 1459843757542
1.951220, -6.905488, -72.560974, 1459843757552
-2.972561, -8.384147, -77.850609, 1459843757561
-8.826220, -12.317074, -79.039635, 1459843757571
-18.064024, -7.896342, -81.585365, 1459843757582
-28.628050, 5.304878, -83.155487, 1459843757592
-32.911587, 12.682927, -85.289635, 1459843757602
-29.420732, 23.277439, -86.128052, 1459843757612
-26.234756, 45.152439, -82.637199, 1459843757621
-22.057928, 57.926830, -78.719513, 1459843757631
-18.399391, 62.210369, -75.899391, 1459843757642
-14.070123, 51.478661, -76.692078, 1459843757652
-6.753049, 32.637196, -76.539635, 1459843757662
-6.509147, 27.301830, -70.442078, 1459843757672
-6.783537, 16.295732, -69.847565, 1459843757681
-9.573171, 6.829268, -68.750000, 1459843757692
-10.960366, -3.155488, -65.960365, 1459843757702
-10.838415, -0.838415, -60.228661, 1459843757712
-9.451220, 14.496951, -56.082317, 1459843757722
-10.823171, 18.338415, -55.685978, 1459843757733
-11.996951, 17.728659, -55.945122, 1459843757741
-12.560976, 14.893293, -55.167683, 1459843757752
-9.573171, 11.493903, -55.045734, 1459843757762
-5.868903, 15.442074, -51.524391, 1459843757772
-2.423780, 18.277439, -45.792683, 1459843757782
-0.472561, 17.972561, -43.018295, 1459843757793
-1.570122, 20.579269, -39.115856, 1459843757801
-3.201220, 16.753050, -34.115856, 1459843757812
-7.728659, 21.524391, -27.256098, 1459843757822
-7.789634, 25.320122, -23.734756, 1459843757832
-2.774390, 23.704269, -22.332317, 1459843757842
-1.265244, 27.118902, -20.807928, 1459843757853
0.106707, 24.420732, -21.539635, 1459843757861
1.844512, 15.807927, -21.996952, 1459843757872
3.140244, 16.920732, -18.643293, 1459843757882
5.625000, 16.219513, -17.134148, 1459843757892
5.106708, 19.588415, -17.134148, 1459843757902
1.966463, 18.216463, -15.487805, 1459843757913
-1.097561, 17.240854, -12.820123, 1459843757921
-3.765244, 11.646341, -10.457317, 1459843757932
-4.618903, -1.783537, -10.975610, 1459843757942
-6.295732, -3.018293, -9.878049, 1459843757952
-6.615854, 17.179878, -5.762195, 1459843757963
-6.722561, 25.030489, -2.408537, 1459843757973
-5.960366, 16.402439, -2.423780, 1459843757982
-1.524390, -2.423780, -3.795732, 1459843757992
3.109756, -15.060976, -5.777439, 1459843758002
3.307927, -9.573171, -3.323171, 1459843758012
4.725610, -10.213415, -3.353659, 1459843758023
2.469512, -9.725610, -3.216464, 1459843758033
-0.045732, -14.634147, -1.692073, 1459843758042
-2.896342, -15.746952, -2.332317, 1459843758052
-5.182927, -20.152439, -6.524390, 1459843758062
-1.387195, -26.875000, -10.213415, 1459843758072
7.560976, -28.871952, -6.829268, 1459843758083
16.524391, -33.612804, -15.503049, 1459843758093
15.503049, -20.015244, -51.890244, 1459843758102
45.121952, 90.701225, -1.341463, 1459843758112
135.731705, 231.189026, -4.039634, 1459843758122
105.670731, 78.003052, -53.673782, 1459843758132
59.115856, 22.225611, -43.216465, 1459843758143
63.109756, 61.356709, -23.170732, 1459843758153
46.478661, 30.838415, -21.250000, 1459843758172
