X, Y, Z, EPOCH
-27.240854, 30.411587, 30.579269, 1459843872100
-26.402439, 24.664635, 31.280489, 1459843872110
-23.856709, -1.768293, 30.304878, 1459843872121
-24.588415, -17.012196, 32.835365, 1459843872131
-29.070122, -17.362804, 37.667683, 1459843872141
-32.271343, -13.064025, 41.097561, 1459843872151
-34.893295, -2.195122, 46.951221, 1459843872160
-30.960367, -9.390244, 50.685978, 1459843872171
-27.469513, -18.368902, 53.033539, 1459843872181
-25.015245, -23.231709, 56.097561, 1459843872191
-19.115854, -42.134148, 57.926830, 1459843872201
-15.884147, -53.917683, 60.731709, 1459843872212
-17.515244, -39.115856, 65.807930, 1459843872220
-23.643293, -20.228659, 72.972565, 1459843872231
-22.682928, -24.435976, 72.911591, 1459843872241
-18.140244, -32.972561, 71.768295, 1459843872251
-6.692073, -45.198174, 71.189026, 1459843872261
3.231707, -54.954269, 73.170731, 1459843872272
7.652439, -48.689026, 76.600609, 1459843872280
10.396341, -43.567074, 77.820122, 1459843872291
13.185976, -50.975613, 77.393295, 1459843872301
16.676830, -57.210365, 77.637199, 1459843872311
25.274391, -60.457317, 76.935974, 1459843872321
32.881100, -60.137196, 76.006096, 1459843872332
35.182926, -53.567074, 76.631096, 1459843872340
35.503048, -49.344513, 74.862808, 1459843872351
36.082317, -50.381100, 71.463417, 1459843872361
41.173782, -56.920734, 66.996956, 1459843872371
48.932926, -65.076218, 63.125000, 1459843872381
54.939026, -68.246956, 60.045734, 1459843872392
60.045734, -68.079269, 55.350613, 1459843872401
63.277439, -64.283539, 48.948174, 1459843872411
62.698174, -56.859756, 44.192074, 1459843872421
60.274391, -48.597561, 41.310978, 1459843872431
55.685978, -43.277439, 37.515244, 1459843872442
55.365856, -45.411587, 32.256100, 1459843872452
67.469513, -72.911591, 24.771341, 1459843872461
81.158539, -94.176834, 22.118902, 1459843872471
85.198174, -89.100609, 22.500000, 1459843872481
89.039635, -97.301834, 16.737804, 1459843872491
92.957321, -111.417686, 7.393293, 1459843872502
94.481712, -115.442078, -0.213415, 1459843872512
91.676834, -110.564026, -4.375000, 1459843872521
86.631096, -99.039635, -6.463415, 1459843872531
81.554878, -89.923782, -9.405488, 1459843872541
77.332321, -81.768295, -12.530488, 1459843872551
76.753052, -77.560974, -15.274390, 1459843872562
82.042686, -85.426834, -20.167683, 1459843872572
86.935974, -94.420731, -29.314026, 1459843872581
87.149391, -108.475609, -44.512196, 1459843872591
80.442078, -108.567078, -54.664635, 1459843872601
71.356712, -97.820122, -58.079269, 1459843872611
59.314026, -74.329269, -58.475613, 1459843872622
46.920734, -49.054878, -57.057930, 1459843872632
42.957317, -39.832317, -58.216465, 1459843872641
42.408539, -32.393295, -58.887196, 1459843872651
40.716465, -22.804878, -59.786587, 1459843872661
43.810978, -29.420732, -66.615852, 1459843872672
45.548782, -36.051830, -71.692078, 1459843872682
46.356709, -40.792683, -74.649391, 1459843872692
47.835365, -48.018295, -77.667686, 1459843872701
48.277439, -50.304878, -78.597565, 1459843872711
49.512196, -46.493904, -79.192078, 1459843872721
45.259148, -30.579269, -77.073174, 1459843872732
41.600609, -17.271341, -75.975609, 1459843872742
38.780487, -16.021341, -80.564026, 1459843872752
34.466465, -17.774391, -87.759148, 1459843872761
30.960367, -13.826220, -91.448174, 1459843872771
29.375000, -3.856707, -89.695122, 1459843872781
28.567074, 3.185976, -87.225609, 1459843872792
30.670732, 3.643293, -87.179878, 1459843872802
31.219513, 2.560976, -86.585365, 1459843872812
32.454269, 4.969512, -85.213417, 1459843872821
30.045732, 12.942074, -83.048782, 1459843872831
24.618902, 24.496952, -81.524391, 1459843872841
16.219513, 27.804878, -84.085365, 1459843872852
10.426829, 31.219513, -85.030487, 1459843872862
5.548780, 33.384148, -85.213417, 1459843872872
3.277439, 34.192074, -85.457321, 1459843872881
1.250000, 35.685978, -85.960365, 1459843872891
0.304878, 41.554878, -87.484756, 1459843872901
-1.631098, 47.027439, -87.652443, 1459843872912
-3.125000, 49.039635, -84.496956, 1459843872922
-3.353659, 52.317074, -81.753052, 1459843872932
-5.640244, 53.125000, -82.103661, 1459843872941
-11.448171, 52.515244, -84.618904, 1459843872951
-21.082317, 56.615856, -84.649391, 1459843872962
-30.289635, 55.030491, -84.969513, 1459843872972
-36.783539, 55.121952, -84.618904, 1459843872982
-43.033539, 58.978661, -82.134148, 1459843872992
-46.600613, 58.003052, -82.332321, 1459843873003
-48.810978, 59.283539, -82.926834, 1459843873011
-51.935978, 65.045731, -79.070122, 1459843873022
-52.530491, 69.359756, -74.268295, 1459843873032
-52.865856, 74.390244, -70.884148, 1459843873042
-56.158539, 78.795731, -68.109756, 1459843873052
-63.460369, 65.335365, -69.176834, 1459843873063
-72.195122, 45.655487, -69.420731, 1459843873071
-79.420731, 47.149391, -66.951218, 1459843873082
-84.207321, 47.317074, -62.408539, 1459843873092
-84.817078, 45.030487, -58.201221, 1459843873102
-84.984756, 48.689026, -55.853661, 1459843873112
-87.164635, 51.631100, -53.567074, 1459843873123
-88.643295, 56.905491, -46.875000, 1459843873131
-82.286591, 42.149391, -39.679878, 1459843873142
-78.993904, 35.182926, -25.381098, 1459843873152
-84.070122, 34.375000, -12.256098, 1459843873162
-94.085365, 35.625000, -3.673781, 1459843873172
-105.213417, 42.027439, 2.713415, 1459843873183
-114.268295, 52.774391, 9.268292, 1459843873192
-116.981712, 59.695122, 16.844513, 1459843873202
-111.798782, 76.326218, 25.060976, 1459843873212
-106.646347, 89.634148, 35.990856, 1459843873222
-108.003052, 95.396347, 43.018295, 1459843873233
-113.871956, 97.256104, 47.698174, 1459843873243
-110.259148, 69.862808, 52.225613, 1459843873252
-89.679878, 26.173780, 56.570122, 1459843873262
-75.579269, 23.856709, 69.161591, 1459843873272
-74.207321, 32.957317, 80.289635, 1459843873282
-76.356712, 25.045732, 80.701218, 1459843873293
-76.387199, 26.371952, 81.417686, 1459843873303
-70.990852, 23.597561, 84.115852, 1459843873312
-66.112808, 17.210367, 86.326225, 1459843873322
-67.164635, 13.567074, 87.621956, 1459843873332
-69.603661, 6.448171, 84.100609, 1459843873342
-73.612808, 15.076220, 84.375000, 1459843873353
-76.173782, 28.704269, 90.289635, 1459843873363
-71.204269, 23.231709, 94.298782, 1459843873372
-57.560978, -12.240854, 87.301834, 1459843873382
-45.152439, -26.143293, 75.899391, 1459843873392
-36.173782, -18.338415, 73.765244, 1459843873402
-26.067074, -11.158537, 75.442078, 1459843873413
-16.737804, -4.344512, 73.902443, 1459843873423
-14.557927, 1.631098, 69.710365, 1459843873432
-12.560976, -8.414635, 64.009148, 1459843873442
-10.899390, -18.109756, 57.942074, 1459843873452
-15.152439, -20.426830, 55.045734, 1459843873463
-17.576220, -26.493902, 47.500000, 1459843873473
-18.963415, -17.103659, 38.810978, 1459843873483
-17.926830, 4.817073, 34.009148, 1459843873492
-9.085366, 6.250000, 26.829269, 1459843873502
9.573171, -9.344512, 17.820122, 1459843873512
22.378050, -9.634147, 11.356708, 1459843873523
26.966463, -6.143293, 5.442073, 1459843873533
25.960367, -9.420732, -1.844512, 1459843873543
22.057928, -9.679878, -6.646342, 1459843873552
16.097561, -5.868903, -6.280488, 1459843873562
8.307927, 2.530488, -3.460366, 1459843873572
0.411585, 7.195122, -3.521342, 1459843873583
-9.984756, 13.689025, 0.137195, 1459843873593
-16.341463, 17.256098, 6.189024, 1459843873603
-16.570122, 23.521341, 17.195122, 1459843873612
-14.573171, 18.490854, 29.375000, 1459843873622
-3.460366, -10.746951, 31.158537, 1459843873632
10.838415, -44.451221, 32.240856, 1459843873643
28.414635, -78.216469, 35.929878, 1459843873663
44.100613, -85.213417, 14.207317, 1459843873672
34.634148, -58.521343, -12.850610, 1459843873682
16.753050, 18.094513, -42.271343, 1459843873693
21.905489, 206.722565, -25.426830, 1459843873703
67.682930, 146.798782, -0.015244, 1459843873713
8.734756, -43.429878, 4.923780, 1459843873732
