X, Y, Z, EPOCH
-2.469512, 12.606708, 2.759146, 1459843848453
-3.750000, 14.390244, 3.277439, 1459843848462
-10.274390, 21.204269, 4.283537, 1459843848472
-17.454269, 25.243902, 4.054878, 1459843848483
-17.957317, 13.246951, 1.036585, 1459843848493
-12.454268, 1.905488, -2.896342, 1459843848503
-9.390244, 5.243903, -3.887195, 1459843848513
-12.545732, 6.539634, -3.978659, 1459843848522
-16.798780, 3.582317, -3.033537, 1459843848532
-14.161586, 2.469512, -2.118902, 1459843848543
-14.070123, 22.423780, -0.685976, 1459843848553
-18.673780, 56.158539, 2.103659, 1459843848563
-21.920732, 64.618904, -1.112805, 1459843848573
-17.286585, 51.112804, -8.018292, 1459843848584
-20.015244, 38.658539, -13.185976, 1459843848592
-32.240856, 40.990856, -16.265244, 1459843848603
-47.682926, 33.048782, -14.923780, 1459843848613
-68.628052, 15.731708, -16.798780, 1459843848623
-86.234756, 10.655488, -22.530489, 1459843848633
-89.314026, 16.829269, -21.661587, 1459843848644
-76.981712, 28.277439, -20.335367, 1459843848652
-59.496952, 43.399391, -17.057928, 1459843848663
-59.908539, 68.445122, -11.570122, 1459843848673
-67.652443, 83.628052, -8.307927, 1459843848683
-84.405487, 64.908539, -7.881098, 1459843848693
-106.631104, 26.554878, -7.835366, 1459843848704
-108.445122, -23.246952, -10.243902, 1459843848713
-89.801834, -45.960365, -13.475610, 1459843848723
-78.216469, -1.204268, -3.170732, 1459843848733
-70.594513, 38.231709, 3.231707, 1459843848743
-70.335365, 64.420731, 6.707317, 1459843848754
-82.957321, 71.676834, 5.167683, 1459843848764
-90.746956, 61.356709, 1.051829, 1459843848773
-89.451225, 42.500000, -0.274390, 1459843848783
-101.996956, 10.716464, -6.509147, 1459843848793
-121.448174, -13.429878, -16.326220, 1459843848803
-128.948181, -20.243902, -19.146341, 1459843848814
-124.253052, -5.243903, -13.643293, 1459843848824
-119.283539, 25.945122, -8.612805, 1459843848833
-107.225609, 41.951221, -6.509147, 1459843848843
-91.981712, 46.189026, -5.121951, 1459843848853
-95.564026, 52.012196, -6.006098, 1459843848863
-98.323174, 34.146343, -10.320122, 1459843848874
-100.716469, 20.274391, -13.429878, 1459843848884
-99.710365, 18.246952, -12.881098, 1459843848893
-97.317078, 22.301830, -8.155488, 1459843848903
-95.823174, 14.679878, -5.945122, 1459843848913
-91.234756, 9.451220, -3.689024, 1459843848923
-87.134148, 18.460367, 0.914634, 1459843848934
-81.661591, 22.698172, 1.722561, 1459843848944
-78.170731, 34.481709, 4.222561, 1459843848953
-73.277443, 45.030487, 6.082317, 1459843848963
-66.463417, 53.185978, 6.600610, 1459843848973
-49.771343, 50.960365, 8.429878, 1459843848984
-30.655489, 46.920734, 11.844513, 1459843848994
-27.865854, 37.606709, 12.317074, 1459843849004
-38.140244, 13.673780, 5.807927, 1459843849013
-46.707317, -4.329268, 3.368902, 1459843849023
-45.091465, -12.195122, 5.990854, 1459843849033
-41.661587, -13.765244, 7.591464, 1459843849044
-36.463417, -2.987805, 6.585366, 1459843849054
-43.567074, 14.725610, 2.804878, 1459843849064
-79.192078, 27.957317, -5.198171, 1459843849073
-93.826225, 32.408539, -12.698171, 1459843849083
-14.771342, -1.387195, 4.222561, 1459843849093
64.024391, 18.658537, 35.457317, 1459843849104
78.216469, 22.073172, 32.576221, 1459843849114
58.155491, 15.670732, 22.439024, 1459843849124
39.847561, 4.954268, 19.542683, 1459843849133
28.475611, 9.359756, 21.173780, 1459843849143
13.307927, 14.237805, 18.887196, 1459843849153
-5.335366, 10.503049, 9.756098, 1459843849164
-17.881098, 24.786587, 7.088415, 1459843849174
-17.286585, 26.082317, 6.478659, 1459843849184
-7.850610, -1.173781, 0.472561, 1459843849193
-0.121951, -10.929878, -0.274390, 1459843849203
1.570122, -13.125000, -0.152439, 1459843849213
-2.728659, -8.902439, -0.121951, 1459843849224
-7.774390, -11.402439, 1.387195, 1459843849234
-10.487805, -15.670732, 4.054878, 1459843849244
-11.509147, -14.603659, 6.783537, 1459843849253
-11.737805, -13.734756, 8.429878, 1459843849263
-10.259147, -7.210366, 15.015244, 1459843849274
-6.722561, -0.990854, 24.176830, 1459843849284
1.996951, -11.402439, 30.685976, 1459843849294
18.689024, -31.448172, 37.179878, 1459843849304
47.408539, -34.207317, 39.847561, 1459843849313
66.204269, -64.496956, 38.536587, 1459843849323
54.146343, -51.661587, 4.390244, 1459843849334
26.661587, 138.917679, -104.131104, 1459843849344
7.637195, 297.347565, -95.777443, 1459843849354
79.710365, 45.868904, -34.298782, 1459843849373
